{
  "searchquery":"computer",
  "autocorrect": null,
  "meta": {
    "totalResults": 20,
    "currentPage": 1,
    "totalPages": 20
  },
  "results": [
    {
      "url": "https://www.geeksforgeeks.org",
      "title": "GeeksforGeeks - A computer science portal for geeks",
      "content": "A Computer Science portal for geeks. It contains well written, well thought and well explained computer science and programming articles, quizzes and ..."
    },
    {
      "url": "https://www.expertsystem.com/machine-learning-definition/",
      "title": "What is Machine Learning? A definition - Expert System",
      "content": "Machine learning is an application of artificial intelligence (AI) that provides systems the ability to automatically learn and improve from experience without being explicitly programmed. Machine learning focuses on the development of computer programs that can access data and use it learn for themselves"
    }
  ],
  "facets": {
    "facetKey1": [
      {
        "value": "Wired",
        "count": 20
      },
      {
        "value": "Orbit",
        "count": 3
      },
      {
        "value": "Software",
        "count": 35
      }
    ],
    "facetKey2": [
      {
        "value": "Space",
        "count": 43
      },
      {
        "value": "AI",
        "count": 33
      },
      {
        "value": "Drone",
        "count": 25
      }
    ]
  }
}